{
	"info": {
		"_postman_id": "24fb7475-c60b-45cb-ab20-69144fd36bdc",
		"name": "Мои тренировки",
		"schema": "https://schema.getpostman.com/json/collection/v2.1.0/collection.json"
	},
	"item": [
		{
			"name": "1 POST",
			"event": [
				{
					"listen": "test",
					"script": {
						"exec": [
							"pm.test(\"Status code is 200\", function () {\r",
							"    pm.response.to.have.status(200);\r",
							"});\r",
							"\r",
							"pm.test(\"Your test name\", function () {\r",
							"    var jsonData = pm.response.json();\r",
							"    //console.log('Проверка', jsonData.place_id)\r",
							"    //pm.expect(jsonData.value).to.eql(100);\r",
							"    pm.environment.set(\"place_id\", jsonData.place_id);\r",
							"});"
						],
						"type": "text/javascript"
					}
				}
			],
			"request": {
				"method": "POST",
				"header": [],
				"body": {
					"mode": "raw",
					"raw": "{\r\n    \"location\": {\r\n        \"lat\": -38.383494,\r\n        \"lng\": 33.427362\r\n    },\r\n    \"accuracy\": 50,\r\n    \"name\": \"{{$randomCompanyName}}\",\r\n    \"phone_number\": \"{{$randomPhoneNumber}}\",\r\n    \"address\": \"29, side layout, cohen 09\",\r\n    \"types\": [\r\n        \"shoe park\",\r\n        \"shop\"\r\n    ],\r\n    \"website\": \"{{$randomEmail}}\",\r\n    \"language\": \"French-IN\"\r\n}",
					"options": {
						"raw": {
							"language": "json"
						}
					}
				},
				"url": {
					"raw": "https://rahulshettyacademy.com/maps/api/place/add/json ?key=qaclick123",
					"protocol": "https",
					"host": [
						"rahulshettyacademy",
						"com"
					],
					"path": [
						"maps",
						"api",
						"place",
						"add",
						"json "
					],
					"query": [
						{
							"key": "key",
							"value": "qaclick123"
						}
					]
				}
			},
			"response": []
		},
		{
			"name": "2 https://rahulshettyacademy.com/maps/api/place/get/json ?key=qaclick123&place_id =5a121100f764edb41e98c66746b0c302",
			"event": [
				{
					"listen": "test",
					"script": {
						"exec": [
							"pm.test(\"Status code is 200\", function () {\r",
							"    pm.response.to.have.status(200);\r",
							"});\r",
							"\r",
							"pm.test(\"address адрес\", function () {\r",
							"    var jsonData = pm.response.json();\r",
							"    pm.expect(jsonData.address).to.eql('29, side layout, cohen 09');\r",
							"});"
						],
						"type": "text/javascript"
					}
				}
			],
			"request": {
				"method": "GET",
				"header": [],
				"url": {
					"raw": "https://rahulshettyacademy.com/maps/api/place/get/json ?key=qaclick123&place_id={{place_id}}",
					"protocol": "https",
					"host": [
						"rahulshettyacademy",
						"com"
					],
					"path": [
						"maps",
						"api",
						"place",
						"get",
						"json "
					],
					"query": [
						{
							"key": "key",
							"value": "qaclick123"
						},
						{
							"key": "place_id",
							"value": "{{place_id}}"
						}
					]
				}
			},
			"response": []
		},
		{
			"name": "3 https://rahulshettyacademy.com/maps/api/place/update/json?key=qaclick123",
			"event": [
				{
					"listen": "test",
					"script": {
						"exec": [
							"pm.test(\"Status code is 200\", function () {\r",
							"    pm.response.to.have.status(200);\r",
							"});\r",
							"\r",
							"pm.test(\"MSG\", function () {\r",
							"    var jsonData = pm.response.json();\r",
							"    pm.expect(jsonData.msg).to.eql(\"Address successfully updated\");\r",
							"});"
						],
						"type": "text/javascript"
					}
				}
			],
			"request": {
				"method": "PUT",
				"header": [],
				"body": {
					"mode": "raw",
					"raw": "{\r\n    \"place_id\": \"{{place_id}}\",\r\n    \"address\": \"70 Summer walk, USA\",\r\n    \"key\": \"qaclick123\"\r\n}",
					"options": {
						"raw": {
							"language": "json"
						}
					}
				},
				"url": {
					"raw": "https://rahulshettyacademy.com/maps/api/place/update/json?key=qaclick123",
					"protocol": "https",
					"host": [
						"rahulshettyacademy",
						"com"
					],
					"path": [
						"maps",
						"api",
						"place",
						"update",
						"json"
					],
					"query": [
						{
							"key": "key",
							"value": "qaclick123"
						}
					]
				}
			},
			"response": []
		},
		{
			"name": "4 https://rahulshettyacademy.com/maps/api/place/delete/json?key=qaclick123",
			"event": [
				{
					"listen": "test",
					"script": {
						"exec": [
							"pm.test(\"Status code is 200\", function () {\r",
							"    pm.response.to.have.status(200);\r",
							"});"
						],
						"type": "text/javascript"
					}
				}
			],
			"request": {
				"method": "DELETE",
				"header": [],
				"body": {
					"mode": "raw",
					"raw": "{\r\n    \"place_id\": \"{{place_id}}\"\r\n}",
					"options": {
						"raw": {
							"language": "json"
						}
					}
				},
				"url": {
					"raw": "https://rahulshettyacademy.com/maps/api/place/delete/json?key=qaclick123",
					"protocol": "https",
					"host": [
						"rahulshettyacademy",
						"com"
					],
					"path": [
						"maps",
						"api",
						"place",
						"delete",
						"json"
					],
					"query": [
						{
							"key": "key",
							"value": "qaclick123"
						}
					]
				}
			},
			"response": []
		},
		{
			"name": "5 https://rahulshettyacademy.com/maps/api/place/get/json ?key=qaclick123&place_id=5a121100f764edb41e98c66746b0c302",
			"event": [
				{
					"listen": "test",
					"script": {
						"exec": [
							"pm.test(\"Status code is 404\", function () {\r",
							"    pm.response.to.have.status(404);\r",
							"});"
						],
						"type": "text/javascript"
					}
				}
			],
			"request": {
				"method": "GET",
				"header": [],
				"url": {
					"raw": "https://rahulshettyacademy.com/maps/api/place/get/json ?key=qaclick123&place_id={{place_id}}",
					"protocol": "https",
					"host": [
						"rahulshettyacademy",
						"com"
					],
					"path": [
						"maps",
						"api",
						"place",
						"get",
						"json "
					],
					"query": [
						{
							"key": "key",
							"value": "qaclick123"
						},
						{
							"key": "place_id",
							"value": "{{place_id}}"
						}
					]
				}
			},
			"response": []
		}
	]
}